^C:\USERS\AGGREY\DESKTOP\FOX VALLEY TECH COLLEGE\FALL 2020 FVTC\C++\WEEK 11\PAM.TICTACTOE\PAM.TICTACTOE\DEBUG\MAIN.OBJ|C:\USERS\AGGREY\DESKTOP\FOX VALLEY TECH COLLEGE\FALL 2020 FVTC\C++\WEEK 11\PAM.TICTACTOE\PAM.TICTACTOE\DEBUG\TICTACTOE.OBJ
C:\USERS\AGGREY\DESKTOP\FOX VALLEY TECH COLLEGE\FALL 2020 FVTC\C++\WEEK 11\PAM.TICTACTOE\DEBUG\PAM.TICTACTOE.EXE
C:\USERS\AGGREY\DESKTOP\FOX VALLEY TECH COLLEGE\FALL 2020 FVTC\C++\WEEK 11\PAM.TICTACTOE\DEBUG\PAM.TICTACTOE.ILK
C:\USERS\AGGREY\DESKTOP\FOX VALLEY TECH COLLEGE\FALL 2020 FVTC\C++\WEEK 11\PAM.TICTACTOE\DEBUG\PAM.TICTACTOE.PDB
